Find and plot correlated vote results • swissdd
…
#extract names of correlated votes
ballotnames <- federalvotes %>%
  dplyr::select(name, id, mun_id)%>%
  filter(id%in%c(5800, simvotes[2,1]))%>%
  distinct(name)

#get correlations for votes on municipal level with mei
simvotes <- similar_votes(federalvotes, id=6310, from=.3, to=1)
simvotes
#> # A tibble: 22 × 2
#>    id    correlation
#>    <chr>       <dbl>
#>  1 5800        0.911
#>  2 5970        0.906
#>  3 6240        0.898
#>  4 5523        0.877
#>  5 5521        0.875
#>  6 5880        0.786
#>  7 5760        0.774
#>  8 5890        0.762
#>  9 5610        0.713
#> 10 5790        0.707
#> # ℹ 12 more rows
…
