Find and plot correlated vote results • swissdd
…
#extract names of correlated votes
ballotnames <- federalvotes %>%
  dplyr::select(name, id, mun_id)%>%
  filter(id%in%c(5800, simvotes[2,1]))%>%
  distinct(name)

#get correlations for votes on municipal level with mei
simvotes <- similar_votes(federalvotes, id=6310, from=.3, to=1)
simvotes
#> # A tibble: 22 x 2
#>    id    correlation
#>    <chr>       <dbl>
#>  1 5800        0.910
#>  2 5970        0.902
#>  3 6240        0.897
#>  4 5523        0.873
#>  5 5521        0.870
#>  6 5880        0.785
#>  7 5760        0.769
#>  8 5890        0.762
#>  9 5610        0.711
#> 10 5790        0.707
#> # … with 12 more rows
…
